Project -= ACKBAR =- v0.2

                                         
                                          
                _,,,--~~~~~~~~--,_         
              ,-‘                  º‘-,            
             ,-‘                       o ‘-,          
           ,-‘                          O‘-,         
          ,-‘                ,   º          ’;        
         ,-‘//                  -,;;;;;;;;;;;;;\        
        /,-‘,’                 ‘-,;;;;;;;;;;;;|       
       /,’,-‘                 _,-~~,_’-,;;;;;;;;|       
     _/ ,’ /            _,-‘/ ,-‘;’-‘’’’’~-,;;;;;;,’        
   ,-‘/      ,-‘’’   ,--‘’ ||/,-‘-‘--‘’’__,’’’\;;;,-‘        
   \ /,,   _,-‘--,,_  \ \||//,-‘-‘x###  \\;;/          
    \//---‘’’’ \#\  \  \ \\|| (O##º  //-‘’           
    /,’____  \‘-#\ \,  \ \\\ ‘-,___,-‘,-`-,,           
    ‘)    ’’’’--,,--,,,,,,¯\\    --,,_’’-,,’’’¯ ’- ’-,         
     )      ,, ‘’’’~~~~’\       ’’’’’¯  ,-‘ ,/\         
     \,//|\\|| //       ,’-,          ,--‘’ ,-‘\\        
     \\’|\\\|/‘//   _--,, ,|)’;       ,-‘’ ,-‘   \\,       
    /¯ |\|\ |/\    ----, \/ |/    ,-‘’  ,-‘      ‘’-,,_    
    |   /‘’-(,      ‘’’’’~,,,,,’’  ,-‘’  ,-‘         ,-‘’’\\    
 ,-‘   |  ‘’)   ¯’’’’~-,  ,--‘’’  ,-‘’         ,-‘ ¯’’’’’-,_ 
 /     ’-,  |      _,,-‘’’’¯ ,--‘’           /       ’’-,
/     -, ¯’’’’’’’’’’’¯  _,,-~’’              |         
        ¯’’~~~~~~’’’                  |         

